%YAML 1.1
%TAG !u! tag:unity3d.com,2011:
--- !u!1001 &5812644665753698986
PrefabInstance:
  m_ObjectHideFlags: 0
  serializedVersion: 2
  m_Modification:
    m_TransformParent: {fileID: 0}
    m_Modifications:
    - target: {fileID: 3101999980413414651, guid: f22a052de0f494ec88393c6da4ec7711,
        type: 3}
      propertyPath: m_Name
      value: BigZombie
      objectReference: {fileID: 0}
    - target: {fileID: 3101999980413414654, guid: f22a052de0f494ec88393c6da4ec7711,
        type: 3}
      propertyPath: m_LocalPosition.x
      value: -0.668442
      objectReference: {fileID: 0}
    - target: {fileID: 3101999980413414654, guid: f22a052de0f494ec88393c6da4ec7711,
        type: 3}
      propertyPath: m_LocalPosition.y
      value: 0.0043128966
      objectReference: {fileID: 0}
    - target: {fileID: 3101999980413414654, guid: f22a052de0f494ec88393c6da4ec7711,
        type: 3}
      propertyPath: m_LocalPosition.z
      value: 0
      objectReference: {fileID: 0}
    - target: {fileID: 3101999980413414654, guid: f22a052de0f494ec88393c6da4ec7711,
        type: 3}
      propertyPath: m_LocalRotation.x
      value: 0
      objectReference: {fileID: 0}
    - target: {fileID: 3101999980413414654, guid: f22a052de0f494ec88393c6da4ec7711,
        type: 3}
      propertyPath: m_LocalRotation.y
      value: 0
      objectReference: {fileID: 0}
    - target: {fileID: 3101999980413414654, guid: f22a052de0f494ec88393c6da4ec7711,
        type: 3}
      propertyPath: m_LocalRotation.z
      value: 0
      objectReference: {fileID: 0}
    - target: {fileID: 3101999980413414654, guid: f22a052de0f494ec88393c6da4ec7711,
        type: 3}
      propertyPath: m_LocalRotation.w
      value: 1
      objectReference: {fileID: 0}
    - target: {fileID: 3101999980413414654, guid: f22a052de0f494ec88393c6da4ec7711,
        type: 3}
      propertyPath: m_RootOrder
      value: 0
      objectReference: {fileID: 0}
    - target: {fileID: 3101999980413414654, guid: f22a052de0f494ec88393c6da4ec7711,
        type: 3}
      propertyPath: m_LocalEulerAnglesHint.x
      value: 0
      objectReference: {fileID: 0}
    - target: {fileID: 3101999980413414654, guid: f22a052de0f494ec88393c6da4ec7711,
        type: 3}
      propertyPath: m_LocalEulerAnglesHint.y
      value: 0
      objectReference: {fileID: 0}
    - target: {fileID: 3101999980413414654, guid: f22a052de0f494ec88393c6da4ec7711,
        type: 3}
      propertyPath: m_LocalEulerAnglesHint.z
      value: 0
      objectReference: {fileID: 0}
    - target: {fileID: 3101999980413414654, guid: f22a052de0f494ec88393c6da4ec7711,
        type: 3}
      propertyPath: m_LocalScale.x
      value: 1.5
      objectReference: {fileID: 0}
    - target: {fileID: 3101999980413414654, guid: f22a052de0f494ec88393c6da4ec7711,
        type: 3}
      propertyPath: m_LocalScale.y
      value: 1.5
      objectReference: {fileID: 0}
    - target: {fileID: 3101999980413414653, guid: f22a052de0f494ec88393c6da4ec7711,
        type: 3}
      propertyPath: m_Color.r
      value: 0.7169812
      objectReference: {fileID: 0}
    - target: {fileID: 3101999980413414653, guid: f22a052de0f494ec88393c6da4ec7711,
        type: 3}
      propertyPath: m_Color.g
      value: 0.7169812
      objectReference: {fileID: 0}
    - target: {fileID: 3101999980413414653, guid: f22a052de0f494ec88393c6da4ec7711,
        type: 3}
      propertyPath: m_Color.b
      value: 0.7169812
      objectReference: {fileID: 0}
    - target: {fileID: 3101999980413414652, guid: f22a052de0f494ec88393c6da4ec7711,
        type: 3}
      propertyPath: HP
      value: 10
      objectReference: {fileID: 0}
    - target: {fileID: 3101999980413414652, guid: f22a052de0f494ec88393c6da4ec7711,
        type: 3}
      propertyPath: speed
      value: 0.25
      objectReference: {fileID: 0}
    - target: {fileID: 1506287457178825456, guid: f22a052de0f494ec88393c6da4ec7711,
        type: 3}
      propertyPath: m_Constraints
      value: 4
      objectReference: {fileID: 0}
    - target: {fileID: 1506287457178825456, guid: f22a052de0f494ec88393c6da4ec7711,
        type: 3}
      propertyPath: m_Mass
      value: 10000
      objectReference: {fileID: 0}
    m_RemovedComponents: []
  m_SourcePrefab: {fileID: 100100000, guid: f22a052de0f494ec88393c6da4ec7711, type: 3}
